…
First I imported the data from the .csv file and cleaned the names so that the dataset is easier to work with. After that, I selected the columns for line, station name, station latitude and longitude, entrance type, routes served, vending, and ADA compliance. Lastly, I changed the entry column into a logical vector. The resulting data set is 1868 x 19. These data give information about subway stations and their entrances/exits including whether or not they have ticket vending machines, whether or not they are accessible, location, and routes served. Right now, the data frame is not yet tidy because there are variables in the column names: route1-route11. These columns need to be reformatted so that each variable has its own column, each observation has its own row, and there is a single value in every cell.

Step 3
------

### Answer questions:

**How many distinct stations?**

``` r
distinct(subway_data, line, station_name)
```

    ## # A tibble: 465 x 2
    ##    line     station_name            
    ##    <chr>    <chr>                   
    ##  1 4 Avenue 25th St                 
    ##  2 4 Avenue 36th St                 
    ##  3 4 Avenue 45th St                 
    ##  4 4 Avenue 53rd St                 
    ##  5 4 Avenue 59th St                 
    ##  6 4 Avenue 77th St                 
    ##  7 4 Avenue 86th St                 
    ##  8 4 Avenue 95th St                 
    ##  9 4 Avenue 9th St                  
    ## 10 4 Avenue Atlantic Av-Barclays Ctr
    ## # ... with 455 more rows

There are 465 unique stations.

**How many stations are ada compliant?**

``` r
filter(
  (distinct(subway_data, line, station_name, .keep_all = TRUE)),
  ada == TRUE)
```

    ## # A tibble: 84 x 19
    ##    line  station_name station_latitude station_longitu~ route1 route2
    ##    <chr> <chr>                   <dbl>            <dbl> <chr>  <chr> 
    ##  1 4 Av~ Atlantic Av~             40.7            -74.0 B      Q     
    ##  2 4 Av~ DeKalb Av                40.7            -74.0 B      Q     
    ##  3 4 Av~ Pacific St               40.7            -74.0 B      Q     
    ##  4 42nd~ Grand Centr~             40.8            -74.0 GS     4     
    ##  5 6 Av~ 34th St                  40.7            -74.0 B      D     
    ##  6 6 Av~ 47-50th Sts~             40.8            -74.0 B      D     
    ##  7 6 Av~ Church Av                40.6            -74.0 F      <NA>  
    ##  8 63rd~ 21st St                  40.8            -73.9 F      <NA>  
    ##  9 63rd~ Lexington Av             40.8            -74.0 F      <NA>  
    ## 10 63rd~ Roosevelt I~             40.8            -74.0 F      <NA>  
    ## # ... with 74 more rows, and 13 more variables: route3 <chr>,
    ## #   route4 <chr>, route5 <chr>, route6 <chr>, route7 <chr>, route8 <int>,
    ## #   route9 <int>, route10 <int>, route11 <int>, entrance_type <chr>,
    ## #   entry <lgl>, vending <chr>, ada <lgl>

84 distinct stations are ADA compliant.

**What proportion of entrances/exits without vending allow entrance?**

``` r
filter(subway_data, vending == "NO")
```

    ## # A tibble: 183 x 19
    ##    line  station_name station_latitude station_longitu~ route1 route2
    ##    <chr> <chr>                   <dbl>            <dbl> <chr>  <chr> 
    ##  1 4 Av~ 53rd St                  40.6            -74.0 R      <NA>  
    ##  2 4 Av~ 77th St                  40.6            -74.0 R      <NA>  
    ##  3 4 Av~ 9th St                   40.7            -74.0 F      G     
    ##  4 4 Av~ Bay Ridge Av             40.6            -74.0 R      <NA>  
    ##  5 42nd~ Grand Centr~             40.8            -74.0 GS     4     
    ##  6 42nd~ Grand Centr~             40.8            -74.0 GS     4     
    ##  7 6 Av~ 7th Av                   40.7            -74.0 F      <NA>  
    ##  8 6 Av~ 7th Av                   40.7            -74.0 F      <NA>  
    ##  9 6 Av~ 7th Av                   40.7            -74.0 F      <NA>  
    ## 10 6 Av~ 7th Av                   40.7            -74.0 F      <NA>  
    ## # ... with 173 more rows, and 13 more variables: route3 <chr>,
    ## #   route4 <chr>, route5 <chr>, route6 <chr>, route7 <chr>, route8 <int>,
    ## #   route9 <int>, route10 <int>, route11 <int>, entrance_type <chr>,
    ## #   entry <lgl>, vending <chr>, ada <lgl>

``` r
filter(subway_data, vending == "NO", entry == TRUE)
```

    ## # A tibble: 69 x 19
    ##    line  station_name station_latitude station_longitu~ route1 route2
    ##    <chr> <chr>                   <dbl>            <dbl> <chr>  <chr> 
    ##  1 4 Av~ 9th St                   40.7            -74.0 F      G     
    ##  2 6 Av~ 7th Av                   40.7            -74.0 F      <NA>  
    ##  3 6 Av~ 7th Av                   40.7            -74.0 F      <NA>  
    ##  4 6 Av~ 7th Av                   40.7            -74.0 F      <NA>  
    ##  5 6 Av~ 7th Av                   40.7            -74.0 F      <NA>  
    ##  6 6 Av~ 7th Av                   40.7            -74.0 F      <NA>  
    ##  7 6 Av~ 7th Av                   40.7            -74.0 F      <NA>  
    ##  8 6 Av~ 7th Av                   40.7            -74.0 F      <NA>  
    ##  9 6 Av~ 7th Av                   40.7            -74.0 F      <NA>  
    ## 10 6 Av~ Bergen St                40.7            -74.0 F      G     
    ## # ... with 59 more rows, and 13 more variables: route3 <chr>,
    ## #   route4 <chr>, route5 <chr>, route6 <chr>, route7 <chr>, route8 <int>,
    ## #   route9 <int>, route10 <int>, route11 <int>, entrance_type <chr>,
    ## #   entry <lgl>, vending <chr>, ada <lgl>
…
Step 4
------

Reformat route \# and route name, answer questions

``` r
subway_data_tidy = gather(subway_data, key = route_number, value = route, route1:route11)

filter(
  (distinct(subway_data_tidy, line, station_name, .keep_all = TRUE)),
  route == "A"
)
```

    ## # A tibble: 60 x 10
    ##    line  station_name station_latitude station_longitu~ entrance_type entry
    ##    <chr> <chr>                   <dbl>            <dbl> <chr>         <lgl>
    ##  1 42nd~ Times Square             40.8            -74.0 Stair         TRUE 
    ##  2 8 Av~ 125th St                 40.8            -74.0 Stair         TRUE 
    ##  3 8 Av~ 145th St                 40.8            -73.9 Stair         TRUE 
    ##  4 8 Av~ 14th St                  40.7            -74.0 Easement      TRUE 
    ##  5 8 Av~ 168th St - ~             40.8            -73.9 Stair         TRUE 
    ##  6 8 Av~ 175th St                 40.8            -73.9 Elevator      TRUE 
    ##  7 8 Av~ 181st St                 40.9            -73.9 Door          TRUE 
    ##  8 8 Av~ 190th St                 40.9            -73.9 Door          TRUE 
    ##  9 8 Av~ 34th St                  40.8            -74.0 Elevator      TRUE 
    ## 10 8 Av~ 42nd St                  40.8            -74.0 Easement      TRUE 
    ## # ... with 50 more rows, and 4 more variables: vending <chr>, ada <lgl>,
    ## #   route_number <chr>, route <chr>
…
